{
"com.badlogic.gdx.graphics.g2d.BitmapFont": {
	"PressStart2P": {
		"file": "PressStart2P.fnt"
	},
	"PressStart2P-Winner": {
		"file": "PressStart2P-32.fnt"
	},
	"PressStart2P-64": {
		"file": "PressStart2P-Regular.fnt"
	},
	"SegoeUI": {
		"file": "SegoeUI.fnt"
	}
},
"com.badlogic.gdx.graphics.Color": {
	"Black": {
		"r": 0,
		"g": 0,
		"b": 0,
		"a": 1
	},
	"White": {
		"r": 1,
		"g": 1,
		"b": 1,
		"a": 1
	},
	"Winner_Green": {
		"r": 0.20271158,
		"g": 0.7400001,
		"b": 0.12580001,
		"a": 1
	}
},
"com.badlogic.gdx.scenes.scene2d.ui.Button$ButtonStyle": {
	"default": {
		"up": "button_normal",
		"down": "button_click",
		"over": "button_hover",
		"disabled": "button_normal"
	}
},
"com.badlogic.gdx.scenes.scene2d.ui.CheckBox$CheckBoxStyle": {
	"default": {
		"checkboxOn": "checkbox_checked",
		"checkboxOff": "checkbox_unchecked",
		"font": "PressStart2P"
	}
},
"com.badlogic.gdx.scenes.scene2d.ui.Label$LabelStyle": {
	"default": {
		"font": "PressStart2P"
	},
	"title": {
		"font": "PressStart2P-64"
	},
	"winner": {
		"font": "PressStart2P-Winner"
	}
},
"com.badlogic.gdx.scenes.scene2d.ui.List$ListStyle": {
	"default": {
		"font": "PressStart2P",
		"fontColorSelected": "White",
		"fontColorUnselected": "White",
		"selection": "button_normal",
		"down": "button_click",
		"over": "button_hover",
		"background": "progress_background"
	}
},
"com.badlogic.gdx.scenes.scene2d.ui.ProgressBar$ProgressBarStyle": {
	"default-horizontal": {
		"background": "progress_background",
		"knobBefore": "button_hover"
	}
},
"com.badlogic.gdx.scenes.scene2d.ui.ScrollPane$ScrollPaneStyle": {
	"default": {
		"background": "progress_background"
	}
},
"com.badlogic.gdx.scenes.scene2d.ui.SelectBox$SelectBoxStyle": {
	"default": {
		"font": "PressStart2P",
		"fontColor": "White",
		"background": "button_normal",
		"scrollStyle": "default",
		"listStyle": "default",
		"backgroundOver": "button_hover",
		"backgroundOpen": "button_click",
		"backgroundDisabled": "button_normal"
	}
},
"com.badlogic.gdx.scenes.scene2d.ui.TextButton$TextButtonStyle": {
	"default": {
		"font": "PressStart2P",
		"fontColor": "White",
		"up": "button_normal",
		"down": "button_click",
		"over": "button_hover",
		"disabled": "button_normal"
	}
},
"com.badlogic.gdx.scenes.scene2d.ui.TextTooltip$TextTooltipStyle": {
	"default": {
		"label": "default"
	}
}
}